{
  "messages": [],
  "model-namespace": "https://kiegroup.org/dmn/_201CC551-80B6-4507-ADBA-2B0C1950FABA",
  "model-name": "CheckListv3",
  "decision-name": "DocumentaryChecklist",
  "dmn-context": {
    "Customer": {
      "jointAccount": true,
      "new": true,
      "newDebitCard": true,
      "pep": true,
      "fatca": true,
      "digitalAccountStatement": true
    },
    "DocumentaryChecklist": [
      {
        "documentTypeCode": "0001",
        "status": "OBLIGATORIO"
      },
      {
        "documentTypeCode": "0002",
        "status": "OBLIGATORIO"
      },
      {
        "documentTypeCode": "0004",
        "status": "OBLIGATORIO"
      },
      {
        "documentTypeCode": "0009",
        "status": "OBLIGATORIO"
      },
      {
        "documentTypeCode": "0013",
        "status": "OBLIGATORIO"
      },
      {
        "documentTypeCode": "0021",
        "status": "OBLIGATORIO"
      },
      {
        "condition": "Incluir si la dirección del DNI no es la actual",
        "documentTypeCode": "0018",
        "status": "IMPORTANTE"
      },
      {
        "documentTypeCode": "0011",
        "status": "OBLIGATORIO"
      }
    ],
    "Product": {
      "productId": "01"
    },
    "Process": {
      "contractingCode": "0058",
      "processTypeCode": "REGULAR",
      "channelCode": "0002"
    },
    "DecisionService": "function DecisionService( CustomerInput, ProcessInput, ProductInput )"
  },
  "decision-results": {
    "_4D35EE02-5347-4EA1-A669-B41FCA2D5B48": {
      "messages": [],
      "decision-id": "_4D35EE02-5347-4EA1-A669-B41FCA2D5B48",
      "decision-name": "Verify PEP Document",
      "result": null,
      "status": "NOT_EVALUATED"
    },
    "_EF9C1A1B-E83D-4676-87DA-29CE1830238F": {
      "messages": [],
      "decision-id": "_EF9C1A1B-E83D-4676-87DA-29CE1830238F",
      "decision-name": "Set Process Type Code",
      "result": null,
      "status": "NOT_EVALUATED"
    },
    "_B5EF7013-63FF-4BFE-948E-806EFA200D3E": {
      "messages": [],
      "decision-id": "_B5EF7013-63FF-4BFE-948E-806EFA200D3E",
      "decision-name": "Final Checklist",
      "result": null,
      "status": "NOT_EVALUATED"
    }
  }
}